…
Next, we can take a look at users' choice of technology. There are two main types of technology: browser type and device type. We are going to simplify that by lumping rarely used types in one category - others.

Browser type:

``` r
browser_type <- as.character(train_user$first_browser)

unique_browser <- train_user %>% 
  group_by(first_browser) %>% 
  tally()
arrange(unique_browser,desc(n))
```

    ## # A tibble: 52 x 2
    ##    first_browser       n
    ##    <fct>           <int>
    ##  1 Chrome          63845
    ##  2 Safari          45169
    ##  3 Firefox         33655
    ##  4 -unknown-       27266
    ##  5 IE              21068
    ##  6 Mobile Safari   19274
    ##  7 Chrome Mobile    1270
    ##  8 Android Browser   851
    ##  9 AOL Explorer      245
    ## 10 Opera             188
    ## # ... with 42 more rows
…
Chinese is the second most used language on Airbnb. The third and fourth languages chosen are French and Spanish

For those people who did choose other languages to display may give us some more knowledge on the ethnicity or the country of origin of Airbnb users. Chinese is the second most used language on Airbnb. At the same time, top destination for these Chinese users is others, which means the destination countries they chose are not US or popular European counties.
The third and fourth language chosen are French and Spanish. And both groups of users preferred countries that have English as their primary language. If we dig deeper in their second choice of country destination. These second choices tend to have a primary language that is the same as the user's language. This is true for French, German and Italian users. We don't know if this is the case for Chineses or Spanish users; however, they second most preferred destination is others, which could indicate a country with the same spoken language as the user’s.

``` r
train4 <- train1 %>% filter(country_destination != "NDF")
language_combo1 <- train4 %>% 
  group_by(language_combo) %>% 
  tally()
display_language_combo1 <- arrange(language_combo1,desc(n))
print(display_language_combo1,n=30)
```

    ## # A tibble: 105 x 2
    ##    language_combo                   n
    ##    <chr>                        <int>
    ##  1 English - English            48299
    ##  2 English - others              6960
    ##  3 English - French              3414
    ##  4 English - Italian             1849
    ##  5 English - Spanish             1570
    ##  6 English - German               763
    ##  7 English - Dutch                550
    ##  8 Chinese - English              328
    ##  9 French - English               212
    ## 10 Spanish; Castilian - English   151
    ## 11 English - Portuguese           147
    ## 12 German - English               142
    ## 13 Korean - English               110
    ## 14 Russian - English               58
    ## 15 Chinese - others                56
    ## 16 Italian - English               54
    ## 17 French - French                 48
    ## 18 Japanese - English              47
    ## 19 Portuguese - English            37
    ## 20 Spanish; Castilian - others     29
    ## 21 Korean - others                 26
    ## 22 Swedish - English               25
    ## 23 German - German                 18
    ## 24 German - others                 17
    ## 25 Spanish; Castilian - Spanish    16
    ## 26 Dutch - English                 15
    ## 27 French - others                 15
    ## 28 Italian - Italian               15
    ## 29 Portuguese - others             15
    ## 30 Danish - English                12
    ## # ... with 75 more rows

``` r
language1 <- train4 %>% 
  group_by(language_full) %>% 
  tally()
arrange(language1,desc(n))
```

    ## # A tibble: 23 x 2
    ##    language_full          n
    ##    <chr>              <int>
    ##  1 English            63552
    ##  2 Chinese              400
    ##  3 French               305
    ##  4 Spanish; Castilian   220
    ##  5 German               199
    ##  6 Korean               150
    ##  7 Italian               86
    ##  8 Russian               85
    ##  9 Japanese              61
    ## 10 Portuguese            54
    ## # ... with 13 more rows
…
