…
Last attribute I want to explore is the language preference of new user. English is chosen by more than 97% users to display on Airbnb. This doesn’t mean it is the primary language spoken by Airbnb users.

For those people who did choose other languages to display may give us some additional knowledge of the ethnicity or the country of origin of Airbnb users. Chinese is the second most used language on Airbnb. At the same time, top destination for these Chinese users is others, which means the destination countries they chose are not US or popular European counties.

The third and fourth language chosen are French and Spanish. And both groups of users preferred countries that have English as primary language.

``` r
language_combo1 <- train4 %>% 
  group_by(language_combo) %>% 
  tally()
arrange(language_combo1,desc(n))
```

    ## # A tibble: 105 x 2
    ##    language_combo                   n
    ##    <chr>                        <int>
    ##  1 English - English            48299
    ##  2 English - others              6960
    ##  3 English - French              3414
    ##  4 English - Italian             1849
    ##  5 English - Spanish             1570
    ##  6 English - German               763
    ##  7 English - Dutch                550
    ##  8 Chinese - English              328
    ##  9 French - English               212
    ## 10 Spanish; Castilian - English   151
    ## # ... with 95 more rows

``` r
language1 <- train4 %>% 
  group_by(language_full) %>% 
  tally()
arrange(language1,desc(n))
```

    ## # A tibble: 23 x 2
    ##    language_full          n
    ##    <chr>              <int>
    ##  1 English            63552
    ##  2 Chinese              400
    ##  3 French               305
    ##  4 Spanish; Castilian   220
    ##  5 German               199
    ##  6 Korean               150
    ##  7 Italian               86
    ##  8 Russian               85
    ##  9 Japanese              61
    ## 10 Portuguese            54
    ## # ... with 13 more rows
…
